<?xml version="1.0" encoding="utf-8"?>
<!-- Generator: Adobe Illustrator 22.1.0, SVG Export Plug-In . SVG Version: 6.00 Build 0)  -->
<svg version="1.1" id="Ebene_1" xmlns="http://www.w3.org/2000/svg" xmlns:xlink="http://www.w3.org/1999/xlink" x="0px" y="0px"
	 width="32px" height="32px" viewBox="0 0 32 32" style="enable-background:new 0 0 32 32;" xml:space="preserve">
<path d="M16.6,27.8c0.2-0.2,0.4-0.5,0.4-0.8c0-0.6-0.4-1-1-1h-0.7l-0.4-0.5L14,23.7L12.3,18H13c0.6,0,1-0.4,1-1
	c0-0.4-0.3-0.8-0.7-0.9l2.7-2.7v-1.7c0.6-0.3,1-1,1-1.7c0-1.1-0.9-2-2-2s-2,0.9-2,2c0,0.7,0.3,1.3,0.9,1.6c-0.1,0.3-0.4,0.5-0.8,0.5
	h-2.3c-0.4,0-0.8-0.4-0.8-0.8V9.7c0.6-0.3,1-1,1-1.7c0-1.1-0.9-2-2-2S7,6.9,7,8c0,0.7,0.4,1.4,1,1.7v1.6c0,0.4-0.4,0.8-0.8,0.8H5
	c-0.3,0-0.6-0.2-0.8-0.5C4.7,11.2,5,10.7,5,10c0-1.1-0.9-2-2-2s-2,0.9-2,2c0,0.7,0.4,1.4,1,1.7v1.7l2.7,2.7C4.3,16.2,4,16.6,4,17
	c0,0.6,0.4,1,1,1h0.7l-1.6,5.6l-0.9,1.8L2.7,26H2c-0.6,0-1,0.4-1,1c0,0.3,0.2,0.6,0.4,0.8L0,29.7V32h18v-2.3L16.6,27.8z M9,13.4
	c0.5,0.4,1.1,0.7,1.8,0.7h1.7L10.6,16H7.4l-1.9-1.9h1.7C7.9,14.1,8.5,13.8,9,13.4z M5.9,24.4L7.8,18h2.5l1.8,6.3l0.8,1.7H5.1
	L5.9,24.4z M2.3,30l1.5-2h10.5l1.5,2H2.3z"/>
</svg>
